[
  {
    "id": 1,
    "brand": "Apple",
    "model": "iPhone 14 ...",
    "memory": [
      {
        "capacity": "64MB",
        "price": "1234"
      },
      {
        "capacity": "128MB",
        "price": "1234"
      },
      {
        "capacity": "256MB",
        "price": "1234"
      }
    ],
    "colour": [
      {
        "name": "white",
        "hex": "#000000"
      },
      {
        "name": "magenta",
        "hex": "#000000"
      },
      {
        "name": "black",
        "hex": "#000000"
      }
    ],
    "stock": "inStock"
  },
  {
    "id": 2,
    "brand": "Apple",
    "model": "iPhone 14 Pro",
    "memory": [
      {
        "capacity": "128MB",
        "price": "1234"
      },
      {
        "capacity": "256MB",
        "price": "1234"
      },
      {
        "capacity": "512MB",
        "price": "1234"
      }
    ],
    "colour": [
      {
        "name": "white",
        "hex": "#000000"
      },
      {
        "name": "magenta",
        "hex": "#000000"
      },
      {
        "name": "black",
        "hex": "#000000"
      }
    ],
    "stock": "inStock"
  },
  {
    "id": 3,
    "brand": "Apple",
    "model": "iPhone 14 Pro Max",
    "memory": [
      {
        "capacity": "128MB",
        "price": "1234"
      },
      {
        "capacity": "256MB",
        "price": "1234"
      },
      {
        "capacity": "512MB",
        "price": "1234"
      }
    ],
    "colour": [
      {
        "name": "white",
        "hex": "#000000"
      },
      {
        "name": "black",
        "hex": "#000000"
      }
    ],
    "stock": "backOrder"
  },
  {
    "id": 4,
    "brand": "Samsung",
    "model": "Galaxy S24",
    "memory": [
      {
        "capacity": "64MB",
        "price": "1234"
      },
      {
        "capacity": "128MB",
        "price": "1234"
      },
      {
        "capacity": "256MB",
        "price": "1234"
      }
    ],
    "colour": [
      {
        "name": "white",
        "hex": "#000000"
      },
      {
        "name": "magenta",
        "hex": "#000000"
      },
      {
        "name": "black",
        "hex": "#000000"
      }
    ],
    "stock": "inStock"
  },
  {
    "id": 5,
    "brand": "Samsung",
    "model": "Galaxy S24+",
    "memory": [
      {
        "capacity": "128MB",
        "price": "1234"
      },
      {
        "capacity": "256MB",
        "price": "1234"
      },
      {
        "capacity": "512MB",
        "price": "1234"
      }
    ],
    "colour": [
      {
        "name": "white",
        "hex": "#000000"
      },
      {
        "name": "magenta",
        "hex": "#000000"
      },
      {
        "name": "black",
        "hex": "#000000"
      }
    ],
    "stock": "inStock"
  },
  {
    "id": 6,
    "brand": "Samsung",
    "model": "Galaxy S24+ Ultra",
    "memory": [
      {
        "capacity": "128MB",
        "price": "1234"
      },
      {
        "capacity": "256MB",
        "price": "1234"
      },
      {
        "capacity": "512MB",
        "price": "1234"
      },
      {
        "capacity": "1024MB",
        "price": "1234"
      }
    ],
    "colour": [
      {
        "name": "white",
        "hex": "#000000"
      },
      {
        "name": "black",
        "hex": "#000000"
      }
    ],
    "stock": "backOrder"
  }
]
